<?xml version="1.0" encoding="UTF-8" standalone="no"?>
<!-- Uploaded to: SVG Repo, www.svgrepo.com, Generator: SVG Repo Mixer Tools -->

<svg
   xmlns:dc="http://purl.org/dc/elements/1.1/"
   xmlns:cc="http://creativecommons.org/ns#"
   xmlns:rdf="http://www.w3.org/1999/02/22-rdf-syntax-ns#"
   xmlns:svg="http://www.w3.org/2000/svg"
   xmlns="http://www.w3.org/2000/svg"
   xmlns:sodipodi="http://sodipodi.sourceforge.net/DTD/sodipodi-0.dtd"
   xmlns:inkscape="http://www.inkscape.org/namespaces/inkscape"
   fill="#000000"
   width="800px"
   height="800px"
   viewBox="0 0 24 24"
   role="img"
   version="1.1"
   id="svg4"
   sodipodi:docname="logotype.svg"
   inkscape:version="0.92.4 (5da689c313, 2019-01-14)">
  <metadata
     id="metadata10">
    <rdf:RDF>
      <cc:Work
         rdf:about="">
        <dc:format>image/svg+xml</dc:format>
        <dc:type
           rdf:resource="http://purl.org/dc/dcmitype/StillImage" />
      </cc:Work>
    </rdf:RDF>
  </metadata>
  <defs
     id="defs8" />
  <sodipodi:namedview
     pagecolor="#ffffff"
     bordercolor="#666666"
     borderopacity="1"
     objecttolerance="10"
     gridtolerance="10"
     guidetolerance="10"
     inkscape:pageopacity="0"
     inkscape:pageshadow="2"
     inkscape:window-width="1355"
     inkscape:window-height="733"
     id="namedview6"
     showgrid="false"
     inkscape:zoom="0.295"
     inkscape:cx="-164.40678"
     inkscape:cy="400"
     inkscape:window-x="177"
     inkscape:window-y="81"
     inkscape:window-maximized="0"
     inkscape:current-layer="svg4" />
  <g
     id="g817">
    <path
       inkscape:connector-curvature="0"
       style="fill:#ff0000;fill-opacity:1;stroke:#ffffff;stroke-width:0.03;stroke-miterlimit:4;stroke-dasharray:none;stroke-opacity:1"
       id="path2"
       d="m 10.75571,0.72667703 a 1.6759638,1.7010804 0 0 1 1.579402,-0.35127846 c 0.20842,0.0698675 0.388159,0.19698764 0.582238,0.32313736 0.152968,0.098009 0.332707,0.1407055 0.471335,0.25326985 0.06884,0.056282 0.01338,0.15526122 0.01338,0.22512872 0.180695,0.4366721 0.277256,0.9141003 0.124287,1.3779431 -0.124287,0.1552612 -0.346091,0.1969877 -0.52583,0.2678256 -0.02868,0.1969876 0.04111,0.3784491 0.06884,0.5764072 -0.04111,0.028141 -0.06884,0.056282 -0.110902,0.084423 0.263871,-0.014556 0.526786,-0.070838 0.790657,-0.1261497 0.09656,-0.098979 0.248574,-0.042697 0.372862,-0.057253 0.01434,-0.1969876 0.08413,-0.3794195 0.08413,-0.5764071 a 0.32505859,0.32993003 0 0 0 0.110903,-0.028141 c 0.01338,0.1407054 0,0.2814109 0.04111,0.4221163 0.06979,0.056282 0.180694,0.028141 0.263871,0.041727 0,0.056282 0,0.1125644 0.01338,0.1688465 1.607128,-0.013585 3.228597,0 4.835724,0 v 0.2396845 h 0.152969 V 2.6528863 h 0.179738 c 0,0.2522994 -0.01338,0.4919839 0,0.7452537 a 0.10516601,0.10674207 0 0 0 0.06979,0.028141 c 0,0.028141 0.01338,0.084423 0.01338,0.1125643 0.05545,-0.056282 0.124287,-0.098979 0.20842,-0.070838 0.01338,0.042697 0.02773,0.084423 0.04111,0.1407055 -0.05545,0.056282 -0.08318,0.1261497 -0.05545,0.2115433 0.44361,0.013585 0.887219,0 1.344213,0 0.04207,-0.056282 0.110903,-0.084423 0.180695,-0.1125643 a 0.44360937,0.45025746 0 0 1 0.08318,0.056282 h 0.650117 a 0.83559179,0.84811426 0 0 1 0.01434,0.3231373 h -0.665414 a 0.43978515,0.44637593 0 0 1 -0.08318,0.070838 c -0.06883,-0.042697 -0.124287,-0.070838 -0.193123,-0.1125643 h -1.205585 c -0.236145,0.069867 -0.485675,0.056282 -0.720865,0.013585 V 4.325825 h -1.982857 a 0.50862109,0.51624346 0 0 1 -0.277256,0.1261497 c 0.04207,0.2115434 -0.193123,0.2678256 -0.277256,0.4230868 A 0.4302246,0.4366721 0 0 1 16.727215,5.043908 c -0.06979,0.4357017 0.08318,0.8442327 0.194079,1.2517934 -0.124287,0.028141 -0.263871,0.069867 -0.388159,0.098009 -0.06979,0.2814109 -0.138628,0.5764072 -0.194079,0.8578181 a 0.81073436,0.82288432 0 0 1 -0.484719,0.5628218 c -0.166354,0.1969876 -0.388159,0.3939753 -0.65203,0.4075606 -0.09656,0.029112 -0.166353,-0.041726 -0.235189,-0.098009 C 14.621039,8.1520436 14.301717,7.983197 13.996735,7.8424916 13.664984,7.6872304 13.360003,7.4902428 13.040681,7.3087812 c 0.02868,0.1960173 -0.06884,0.3648638 -0.138628,0.5337104 0.152969,0.069867 0.360432,0.1261497 0.443609,0.2949963 0.05545,0.1261497 0.110902,0.2678255 0.110902,0.4221163 -0.01338,0.5065397 -0.06883,1.0130793 -0.09656,1.5186478 0.01339,0.365835 -0.166354,0.731669 -0.415884,0.999494 -0.166353,-0.01456 -0.304981,-0.08539 -0.456994,-0.155261 -0.05545,0.12615 -0.180694,0.2523 -0.110902,0.407561 0.05545,0.183402 0.05545,0.38039 0.138628,0.549236 a 6.3807089,6.4763325 0 0 1 1.163518,1.701081 c 0.290641,0.605518 0.512445,1.238208 0.748591,1.870897 0.04111,0 0.124287,-0.01456 0.166353,-0.01456 0.05545,0.183403 0,0.393976 0.110903,0.562822 0.09656,0.155261 0.06884,0.337693 0.06884,0.520125 -0.02773,0.422116 -0.05545,0.844233 -0.09656,1.266349 -0.02868,0.294996 -0.09752,0.590963 -0.138628,0.885959 0.01338,0.225129 0.110903,0.450258 0.09656,0.675387 -0.01338,0.210573 -0.01338,0.435701 -0.179738,0.589992 0.01338,0.478399 -0.110903,0.956797 0.05545,1.42064 0.221804,0.310522 0.471335,0.604548 0.73425,0.872374 0.29064,0.140705 0.637688,0.168846 0.887218,0.422116 0.09561,0.155261 0.04111,0.336723 0.01338,0.505569 a 6.4361601,6.5326146 0 0 1 -1.787822,0 c -0.235189,-0.05628 -0.456994,-0.15429 -0.692184,-0.182432 -0.319322,0.01359 -0.693139,0.140706 -0.984736,-0.08442 -0.02677,-0.379419 0.111858,-0.745254 0.180694,-1.111088 0.02773,-0.126149 0.152969,-0.210573 0.138628,-0.337693 -0.02868,-0.436672 -0.05545,-0.885959 -0.08318,-1.321661 -0.05545,-0.02911 -0.152969,-0.05628 -0.138628,-0.140705 0,-0.211544 -0.06884,-0.422116 -0.124287,-0.619104 a 10.345468,10.500508 0 0 1 -0.152969,-1.631213 c -0.01339,-0.155261 0.08318,-0.267826 0.194079,-0.365834 0.02868,-0.238714 0.05545,-0.491984 0.06979,-0.731669 -0.04207,-0.126149 -0.138628,-0.225128 -0.194079,-0.337693 -0.24953,0.02911 -0.609963,0.08442 -0.761976,-0.182432 -0.360432,-0.548266 -0.735206,-1.111087 -1.094682,-1.659354 -0.152969,-0.01455 -0.332707,0 -0.471335,-0.09898 -0.152969,-0.168846 -0.2495305,-0.393004 -0.3470481,-0.604548 -0.04111,0.168847 -0.068836,0.351279 -0.1663535,0.491984 -0.083177,0.140706 -0.2208486,0.239685 -0.3183662,0.365834 -0.096561,0.225129 -0.1797383,0.450258 -0.262915,0.675386 -0.097518,0.281411 -0.2361455,0.562822 -0.2638711,0.872374 a 1.4751924,1.4973001 0 0 1 -0.096562,0.435702 c -0.069792,0.112564 -0.1940791,0.155261 -0.3049814,0.210573 -0.083177,0.183402 -0.1386279,0.365834 -0.262915,0.521095 -0.083177,0.09801 -0.2218047,0.12615 -0.2772559,0.2523 -0.055451,0.168846 -0.1386279,0.324108 -0.2084199,0.478398 -0.027726,0.168847 0.083177,0.352249 0.028682,0.520125 -0.097517,0.422117 -0.3059375,0.816092 -0.4990605,1.195511 -0.097518,0.281411 -0.1663535,0.577378 -0.3059375,0.844233 -0.054495,0.112565 -0.193123,0.140706 -0.3040254,0.155261 -0.1242871,0.308582 -0.2638711,0.604549 -0.3460918,0.927686 a 5.1980693,5.2759694 0 0 0 -0.028682,0.942241 c 0,0.140706 0.084133,0.25327 0.139584,0.37942 0.054495,0.168846 0.013385,0.337693 -0.014341,0.50654 -0.5401708,0.07084 -1.0946826,0.126149 -1.6214687,-0.04173 -0.055451,-0.0427 -0.04111,-0.112564 -0.055451,-0.168846 -0.04111,-0.25327 -0.068836,-0.520125 0.014341,-0.75981 0.1797382,-0.66083 0.332707,-1.321661 0.5124453,-1.982491 -0.068836,-0.07084 -0.1663535,-0.12615 -0.1663535,-0.239685 -0.013385,-0.182432 0,-0.379419 0.042066,-0.562822 0.083177,-0.309552 0.3040253,-0.548266 0.4149277,-0.844232 0.042066,-0.12615 0.028682,-0.2523 0.042066,-0.378449 0,-0.295967 0.1663535,-0.534681 0.2906406,-0.787951 0.1242871,-0.211543 0.2218047,-0.436672 0.3881582,-0.619104 0.1109024,-0.09801 0.1109024,-0.252299 0.1940791,-0.379419 0.083177,-0.155262 0.2218047,-0.281411 0.2218047,-0.464814 0.027726,-0.224158 -0.055451,-0.449287 -0.028682,-0.674415 0.056407,-0.660831 0.1816503,-1.308076 0.2915966,-1.969877 -0.055451,-0.06987 -0.1386279,-0.139735 -0.1663535,-0.238714 0.014341,-0.06987 0.028682,-0.12615 0.042066,-0.196988 L 6.6953459,13.003955 c 0.054495,-0.08442 0.1099463,-0.182431 0.1653975,-0.266855 -0.055451,-0.0427 -0.1242871,-0.09898 -0.1797383,-0.140705 0.068836,-0.211544 0.04111,-0.521096 0.2906406,-0.619104 0.028682,0.01358 0.097518,0.02814 0.1242871,0.04173 -0.04111,-0.364864 -0.04111,-0.745253 -0.082221,-1.111088 A 3.3786972,3.4293316 0 0 1 6.9439201,9.7124184 C 7.0825481,9.5018456 7.3454631,9.4174223 7.5816086,9.403837 7.2766272,9.332999 6.9716457,9.3048579 6.6810051,9.2068493 6.6666643,8.9535795 6.7087307,8.7003097 6.749841,8.4470399 6.8741281,7.955056 6.819633,7.4485163 6.888469,6.9429471 6.958261,6.8012712 7.1379992,6.7731301 7.2900119,6.8012712 c 0.1806944,0.029111 0.3604326,-0.028141 0.541127,-0.084423 0,-0.069867 0.013385,-0.1552611 0,-0.2251287 -0.1109024,-0.4919839 -0.083177,-0.9985235 0,-1.4759517 C 7.9420412,4.3966635 8.1915715,3.7921152 8.6485656,3.3564135 8.9535471,3.0604469 9.3971564,2.9197414 9.8120842,2.9342972 c 0.1386279,0 0.2218048,0.1407054 0.3327068,0.2251287 0.05545,-0.056282 0.110902,-0.1125644 0.152969,-0.1688466 -0.06979,-0.2396844 -0.180694,-0.4929542 -0.166354,-0.7462241 0.02773,-0.5628218 0.207464,-1.139229 0.623348,-1.51864857 m 4.323279,3.98050887 c 0.02773,0.028141 0.02773,0.028141 0,0 m 0.194079,0.028141 c 0.01338,0.098009 0.04111,0.1969876 -0.01434,0.2814109 -0.06883,0.028141 -0.152968,0.028141 -0.221804,0.069868 0.194079,0 0.388158,0.014556 0.583193,0 0.152013,-0.041727 0.09561,-0.2387141 0.09561,-0.3512785 -0.09561,-0.1125644 -0.304026,-0.042697 -0.442654,0 m -0.484719,0.5909629 c 0.138628,0.1542908 0.207463,0.3930049 0.331751,0.5482661 0.180694,-0.2396845 0.319322,-0.4929543 0.526786,-0.7035273 -0.248575,-0.014556 -0.499061,0.014556 -0.747635,-0.014556 -0.04207,0.056282 -0.06979,0.1125644 -0.110902,0.1688465 z" />
    <rect
       y="1.6271187"
       x="3.0508478"
       height="21.864407"
       width="0.50847459"
       id="rect812"
       style="fill:#ff0000;fill-opacity:1;stroke:none;stroke-width:0.03;stroke-opacity:1" />
  </g>
</svg>
